\relax 
\citation{muth1960optimal}
\citation{abraham1986forecast}
\citation{tay2001financial,cao2003financial,kim2003financial}
\citation{wu2015employing}
\citation{cheng2017inventory}
\bibstyle{IEEEtran}
\bibdata{biblio}
\bibcite{muth1960optimal}{1}
\bibcite{abraham1986forecast}{2}
\bibcite{tay2001financial}{3}
\bibcite{cao2003financial}{4}
\bibcite{kim2003financial}{5}
\bibcite{wu2015employing}{6}
\bibcite{cheng2017inventory}{7}
\@writefile{toc}{\contentsline {section}{\numberline {I}Introduction}{1}}
\@writefile{toc}{\contentsline {section}{\numberline {II}Dataset preparation}{1}}
\@writefile{toc}{\contentsline {section}{\numberline {III}Forecasting Methods}{1}}
\@writefile{toc}{\contentsline {section}{\numberline {IV}References}{1}}
\@writefile{toc}{\contentsline {section}{References}{1}}
